<?xml version="1.0" encoding="UTF-8" standalone="no"?>
<!-- Created with Inkscape (http://www.inkscape.org/) -->

<svg
   width="512"
   height="512"
   viewBox="0 0 135.46666 135.46667"
   version="1.1"
   id="svg5"
   inkscape:version="1.1.2 (0a00cf5339, 2022-02-04)"
   sodipodi:docname="square logo.svg"
   xmlns:inkscape="http://www.inkscape.org/namespaces/inkscape"
   xmlns:sodipodi="http://sodipodi.sourceforge.net/DTD/sodipodi-0.dtd"
   xmlns="http://www.w3.org/2000/svg"
   xmlns:svg="http://www.w3.org/2000/svg">
  <sodipodi:namedview
     id="namedview7"
     pagecolor="#ffffff"
     bordercolor="#666666"
     borderopacity="1.0"
     inkscape:pageshadow="2"
     inkscape:pageopacity="0.0"
     inkscape:pagecheckerboard="0"
     inkscape:document-units="mm"
     showgrid="false"
     units="px"
     width="512px"
     inkscape:zoom="0.38262135"
     inkscape:cx="-241.75337"
     inkscape:cy="214.31109"
     inkscape:window-width="1920"
     inkscape:window-height="1011"
     inkscape:window-x="0"
     inkscape:window-y="32"
     inkscape:window-maximized="1"
     inkscape:current-layer="layer1" />
  <defs
     id="defs2">
    <linearGradient
       id="SVGID_1_"
       gradientUnits="userSpaceOnUse"
       x1="536.2594"
       y1="1101.042"
       x2="536.2594"
       y2="840.96112">
      <stop
         offset="0.2852"
         style="stop-color:#40FFE8"
         id="stop34" />
      <stop
         offset="0.855"
         style="stop-color:#59DCFF"
         id="stop36" />
    </linearGradient>
    <linearGradient
       id="SVGID_2_"
       gradientUnits="userSpaceOnUse"
       x1="511.95071"
       y1="1101.0525"
       x2="511.95071"
       y2="840.96112">
      <stop
         offset="0.3523"
         style="stop-color:#40DDEE"
         id="stop41" />
      <stop
         offset="0.855"
         style="stop-color:#59DCFF"
         id="stop43" />
    </linearGradient>
    <linearGradient
       id="SVGID_3_"
       gradientUnits="userSpaceOnUse"
       x1="487.64221"
       y1="1101.042"
       x2="487.64221"
       y2="840.96112">
      <stop
         offset="0.2852"
         style="stop-color:#3FBAF3"
         id="stop48" />
      <stop
         offset="0.855"
         style="stop-color:#59DCFF"
         id="stop50" />
    </linearGradient>
    <linearGradient
       id="SVGID_4_"
       gradientUnits="userSpaceOnUse"
       x1="463.33551"
       y1="1101.036"
       x2="463.33551"
       y2="840.96112">
      <stop
         offset="0.3207"
         style="stop-color:#3F98F9"
         id="stop55" />
      <stop
         offset="0.7803"
         style="stop-color:#59DCFF"
         id="stop57" />
    </linearGradient>
    <linearGradient
       id="SVGID_5_"
       gradientUnits="userSpaceOnUse"
       x1="439.02139"
       y1="1101.042"
       x2="439.02139"
       y2="840.96112">
      <stop
         offset="0"
         style="stop-color:#3E75FF"
         id="stop62" />
      <stop
         offset="0.2894"
         style="stop-color:#3F77FF"
         id="stop64" />
      <stop
         offset="0.8119"
         style="stop-color:#59DCFF"
         id="stop66" />
    </linearGradient>
  </defs>
  <g
     inkscape:label="Layer 1"
     inkscape:groupmode="layer"
     id="layer1">
    <g
       id="g1140"
       transform="matrix(0.50402853,0,0,0.50402853,-178.03098,-421.71891)">
      <path
         class="st2"
         d="m 487.6,1101 c 3.4,0 6.6,-1.3 9,-3.7 l 68.7,-68.8 c 17,-17 27.8,-38.5 31.1,-62.3 0.7,-5.1 1.1,-10.3 1.1,-15.5 0,-29.3 -11.4,-56.9 -32.2,-77.7 -20.7,-20.6 -48.3,-32 -77.6,-32 h -0.1 c -7,0 -12.7,5.7 -12.7,12.7 0,7 5.7,12.7 12.7,12.7 22.6,0 43.8,8.8 59.8,24.8 16,16 24.8,37.2 24.8,59.8 0,4 -0.3,8 -0.8,11.9 -2.6,18.3 -10.9,34.8 -23.9,47.9 l -68.8,68.8 c -2.4,2.4 -3.7,5.6 -3.7,9 0,3.4 1.3,6.6 3.7,9 2.4,2.1 5.6,3.4 8.9,3.4 z"
         id="path39"
         style="fill:url(#SVGID_1_)" />
      <path
         class="st3"
         d="m 499,1094 0.1,-0.1 34.3,-68.6 c 8.2,-16.5 13.4,-37.2 15.1,-59.9 0.3,-4.8 0.5,-9.7 0.5,-14.5 0,-28.3 -5.4,-54 -15.6,-74.4 -5.5,-10.9 -12,-19.5 -19.4,-25.5 -7.8,-6.4 -17.1,-9.9 -26.2,-9.9 h -0.1 c -7,0 -12.7,5.7 -12.7,12.7 0,7 5.7,12.7 12.7,12.7 3.4,0 6.7,1.4 10.3,4.3 4.5,3.6 9,9.7 12.7,17.2 8.2,16.4 13,39.4 12.9,63.1 0,4.2 -0.1,8.5 -0.4,12.8 -1.3,19.1 -5.8,37 -12.5,50.3 l -34.4,68.8 c -3.1,6.2 -0.6,13.9 5.7,17 3,1.5 6.5,1.8 9.7,0.7 3.2,-1.4 5.8,-3.6 7.3,-6.7 z"
         id="path46"
         style="fill:url(#SVGID_2_)" />
      <path
         class="st4"
         d="m 487.6,841 c -7,0 -12.7,5.7 -12.7,12.7 v 234.8 c 0,7 5.7,12.7 12.7,12.7 7,0 12.7,-5.7 12.7,-12.7 V 853.6 c 0,-7 -5.7,-12.6 -12.7,-12.6 z"
         id="path53"
         style="fill:url(#SVGID_3_)" />
      <path
         class="st5"
         d="m 499.7,1092.4 c 1.1,-3.2 0.8,-6.6 -0.7,-9.7 v -0.1 l -34.3,-68.7 c -6.7,-13.3 -11.1,-31.2 -12.5,-50.3 -0.3,-4.2 -0.4,-8.5 -0.4,-12.8 0,-23.7 4.7,-46.7 12.9,-63.1 3.7,-7.5 8.2,-13.6 12.7,-17.2 3.6,-2.9 6.9,-4.3 10.3,-4.3 7,0 12.7,-5.7 12.7,-12.7 0,-7 -5.7,-12.7 -12.7,-12.7 h -0.1 c -9,0 -18.3,3.5 -26.2,9.9 -7.5,6.1 -13.9,14.5 -19.4,25.5 -10.1,20.4 -15.5,46.2 -15.6,74.4 0,4.9 0.2,9.8 0.5,14.6 1.6,22.6 6.8,43.3 15.1,59.9 l 34.4,68.8 c 3.1,6.2 10.8,8.8 17,5.7 2.9,-1.4 5.2,-4 6.3,-7.2 z"
         id="path60"
         style="fill:url(#SVGID_4_)" />
      <path
         class="st6"
         d="m 487.6,841 v 0 c -29.4,0 -57,11.4 -77.7,32.2 -20.8,20.8 -32.2,48.4 -32.2,77.7 0,29.4 11.4,57 32.2,77.7 l 68.8,68.8 c 2.4,2.4 5.6,3.7 8.9,3.7 3.4,0 6.6,-1.3 9,-3.7 2.4,-2.4 3.7,-5.6 3.7,-9 0,-3.4 -1.3,-6.6 -3.7,-9 l -68.8,-68.8 c -16,-16 -24.8,-37.2 -24.8,-59.8 0,-22.6 8.8,-43.8 24.8,-59.8 16,-16 37.2,-24.8 59.8,-24.8 7,0 12.7,-5.7 12.7,-12.7 0,-6.9 -5.7,-12.5 -12.7,-12.5 z"
         id="path69"
         style="fill:url(#SVGID_5_)" />
    </g>
  </g>
</svg>
